## Title: LibKjasi
## Notes: Commonly used functions use by Kjasi in his addons.
## Interface: 60100
## LoadOnDemand: 0
## Version: 1.00.00
## Author: Kjasi
## X-URL: https://bitbucket.org/Kjasi/libkjasi
## X-Feedback: https://bitbucket.org/Kjasi/libkjasi

Load.xml